Name,Sex,Equipment,Event,Division,BodyweightKg,WeightClassKg,Squat1Kg,Squat2Kg,Squat3Kg,Best3SquatKg,Bench1Kg,Bench2Kg,Bench3Kg,Best3BenchKg,Deadlift1Kg,Deadlift2Kg,Deadlift3Kg,Best3DeadliftKg,TotalKg,AgeRange,Place
Paul Bartlett,M,Raw,SBD,M-C-Open,65.4,66,162.5,170,175,175,-102.5,102.5,108,108,190,200,-202.5,200,483,23.5-38.5,1
Wayne Reid,M,Raw,SBD,M-C-M1,72.5,74,157.5,-165,-165,157.5,105,110,-115,110,197.5,210,-215,210,477.5,39.5-48.5,1
Toby Beech,M,Raw,SBD,M-C-Open,70.4,74,120,130,135,135,-80,87.5,92.5,92.5,157.5,170,182.5,182.5,410,23.5-38.5,2
Nyall Thompson,M,Raw,SBD,M-C-Open,69.6,74,115,-120,120,120,65,-70,-70,65,150,165,-172.5,165,350,23.5-38.5,4
Stuart Bywater,M,Raw,SBD,M-C-M1,74,74,,-100,-100,,100,105,,105,170,180,190,190,,39.5-48.5,DQ
Waqaar Ahmed,M,Raw,SBD,M-C-Open,71,74,-162.5,167.5,172.5,172.5,-100,100,105,105,190,195,200,200,477.5,23.5-38.5,1
Ben Turton,M,Raw,SBD,M-C-Open,72.2,74,110,-120,-120,110,70,80,-90,80,155,165,180,180,370,23.5-38.5,3
Ben Bowmer,M,Raw,SBD,M-C-Open,83,83,-205,205,-212.5,205,155,160,-162.5,160,225,240,-245,240,605,23.5-38.5,1
Andrew Barber,M,Raw,SBD,M-C-Open,77.6,83,150,160,170,170,130,140,-150,140,180,190,202.5,202.5,512.5,23.5-38.5,4
Jason Hunton,M,Raw,SBD,M-C-Open,82.6,83,165,-175,-175,165,115,-122.5,-122.5,115,195,-200,,195,475,23.5-38.5,6
Ben Willis,M,Raw,SBD,M-C-Open,74.6,83,150,160,170,170,100,105,-110,105,190,210,-220,210,485,23.5-38.5,5
Tariq Tabiner,M,Raw,SBD,M-C-Open,79.4,83,170,180,185,185,120,125,130,130,200,220,240,240,555,23.5-38.5,3
Dan Worsley,M,Raw,SBD,M-C-Open,78.8,83,-185,195,-205,195,120,130,135,135,250,260,-262.5,260,590,23.5-38.5,2
Tom Bishop #2,M,Raw,SBD,M-C-Open,74.2,83,140,150,160,160,70,80,-90,80,180,190,200,200,440,23.5-38.5,7
Tim Garrett,M,Raw,SBD,M-C-Open,92.6,93,215,-225,,215,-105,105,110,110,220,240,-245,240,565,23.5-38.5,1
Jordan Eastwood,M,Raw,SBD,M-C-Open,91.4,93,200,-205,,200,150,-160,-160,150,160,190,,190,540,23.5-38.5,3
Dean Dyble,M,Raw,SBD,M-C-M1,92.6,93,150,,,150,100,105,-107.5,105,180,190,200,200,455,39.5-48.5,2
Dean Collins,M,Raw,SBD,M-C-Open,88.5,93,160,165,172.5,172.5,130,140,147.5,147.5,220,230,240,240,560,23.5-38.5,2
Sean McPhillips,M,Raw,SBD,M-C-Open,91,93,155,160,165,165,105,110,-115,110,215,225,235,235,510,23.5-38.5,5
Michael Willis,M,Raw,SBD,M-C-Open,91.6,93,200,210,,210,130,135,-140,135,250,-275,-285,250,595,23.5-38.5,7
Richard Thimbleby,M,Raw,SBD,M-C-Open,90,93,170,185,190,190,110,120,-127.5,120,210,-235,-235,210,520,23.5-38.5,4
Bob Morgan,M,Raw,SBD,M-C-M3,88.4,93,110,115,117.5,117.5,-100,-100,-105,,,,,,,59.5-68.5,DQ
Chris McHugh,M,Raw,SBD,M-C-M1,90.6,93,180,-185,190,190,100,105,117.5,117.5,180,200,,200,507.5,39.5-48.5,1
Frankie Faulkner,M,Raw,SBD,M-C-Open,90.2,93,135,145,-150,145,110,112.5,-115,112.5,170,-180,180,180,437.5,23.5-38.5,6
Philip Harker,M,Raw,SBD,M-C-Open,101.8,105,105,115,-120,115,70,75,-80,75,150,160,170,170,360,23.5-38.5,6
Jordan Greenwood,M,Raw,SBD,M-C-Open,103.8,105,-250,250,-260,250,160,-166,-166,160,-240,-265,265,265,675,23.5-38.5,1
Sean Daly,M,Raw,SBD,M-C-M1,96.8,105,180,-190,190,190,105,110,115,115,240,250,255,255,560,39.5-48.5,1
Sam Urwin,M,Raw,SBD,M-C-Open,102.8,105,210,220,-227.5,220,120,127.5,130,130,200,210,220,220,570,23.5-38.5,5
Tom Slater,M,Raw,SBD,M-C-Open,102.6,105,180,195,205,205,125,135,-140,135,240,260,275,275,615,23.5-38.5,2
Ben Goldstraw,M,Raw,SBD,M-C-Open,99.4,105,190,200,-210,200,145,152.5,-160,152.5,230,240,247.5,247.5,600,23.5-38.5,4
Will Pickles,M,Raw,SBD,M-C-Open,93.2,105,-180,-190,190,190,120,125,130,130,265,275,280,280,600,0-22.5,3
Steven Gott,M,Raw,SBD,M-C-M1,118.8,120,-205,217.5,230,230,155,162.5,170,170,230,245,260,260,660,39.5-48.5,1
Pardeep Singh,M,Raw,SBD,M-C-M1,119,120,205,-220,227.5,227.5,102.5,110,-115,110,225,240,250,250,587.5,39.5-48.5,2
David Mills,M,Single-ply,SBD,M-E-Open,119.2,120,-330,-330,330,330,175,182.5,-192.5,182.5,245,260,272.5,272.5,785,23.5-38.5,1
Paul Montgomery,M,Raw,SBD,M-C-Open,114.8,120,205,-215,-217.5,205,150,-157.5,-160,150,250,265,-270,265,620,23.5-38.5,2
Alastair Montgomery,M,Raw,SBD,M-C-M1,146.8,120+,170,175,-180,175,100,-110,-110,100,190,200,-210,200,475,39.5-48.5,2
Brian Lee,M,Raw,SBD,M-C-M2,125.8,120+,230,-250,260,260,190,200,210,210,250,270,-285,270,740,49.5-58.5,1
Christopher Baker,M,Raw,SBD,M-C-M1,133.6,120+,180,200,220,220,180,210,220.5,220.5,220,260,280,280,720.5,39.5-48.5,1
Liz Hill,F,Raw,SBD,F-C-M1,51.15,52,72.5,77.5,80,80,40,42.5,45,45,95,102.5,105,105,230,39.5-48.5,1
Louise Edwards #1,F,Single-ply,SBD,F-E-Open,51.5,52,130,-137.5,143,143,55,67.5,70,70,145,152.5,-160,152.5,365.5,23.5-38.5,1
Zoe Newsham,F,Raw,SBD,F-C-Open,55.85,57,112.5,117.5,120,120,55,60,-65,60,125,135,140,140,320,23.5-38.5,1
Carole Taylor,F,Raw,SBD,F-C-M2,57,57,115,-125,130,130,50,55,60,60,130,140,150,150,340,49.5-58.5,1
Angela Gee,F,Raw,SBD,F-C-M2,55.85,57,50,55,57.5,57.5,35,-37.5,-40,35,60,75,80,80,172.5,49.5-58.5,2
Debbie Schofield,F,Raw,SBD,F-C-Open,55.3,57,75,-80,80,80,-55,55,57.5,57.5,100,110,115,115,252.5,23.5-38.5,2
Sophie Adey,F,Raw,SBD,F-C-Open,60.3,63,80,85,87.5,87.5,40,45,-47.5,45,105,110,120,120,252.5,23.5-38.5,1
Louise Withington,F,Raw,SBD,F-C-Open,68.1,72,120,130,135,135,70,75,-78,75,140,150,160,160,370,23.5-38.5,1
Hollie Johnson,F,Raw,SBD,F-C-Open,68.05,72,72.5,80,82.5,82.5,55,60,-62.5,60,107.5,115,-122.5,115,257.5,23.5-38.5,2
Paige Charlton,F,Raw,SBD,F-C-Open,65.05,72,60,70,80,80,25,30,32.5,32.5,90,100,110,110,222.5,23.5-38.5,3
Beverley Ayers,F,Raw,SBD,F-C-M1,67.85,72,72.5,80,-85,80,45,47.5,50,50,107.5,115,120,120,250,39.5-48.5,1
Dannielle Johnson,F,Raw,SBD,F-C-Open,82.8,84,110,120,125,125,50,-52.5,52.5,52.5,150,-155,,150,327.5,23.5-38.5,1
Sue Hollands,F,Single-ply,SBD,F-E-M3,82.5,84,165,172.5,180,180,80,85,-90.5,85,152.5,160,-165,160,425,59.5-68.5,1
Julie Wright,F,Raw,SBD,F-C-M2,82.1,84,92.5,-97.5,-97.5,92.5,50,-55,-55,50,122.5,132,135,135,277.5,49.5-58.5,1
Jemma Ransom,F,Raw,SBD,F-C-Open,75.2,84,82.5,87.5,90,90,50,55,57.5,57.5,100,110,115,115,262.5,23.5-38.5,2
