Name,Age,WeightClassKg,Division,AgeRange,Sex,Squat1Kg,Squat2Kg,Squat3Kg,Best3SquatKg,Bench1Kg,Bench2Kg,Bench3Kg,Best3BenchKg,Deadlift1Kg,Deadlift2Kg,Deadlift3Kg,Best3DeadliftKg,TotalKg,Event,Equipment,Place
Don Moore,,56,Masters 40-44,40-44,M,-160,-160,-160,,,,,,,,,,,SBD,Single-ply,DQ
Gerald Ringi,,60,Masters 40-44,40-44,M,172.5,185,197.5,197.5,105,112.5,120,120,172.5,-185,187.5,187.5,505,SBD,Single-ply,1
Gordon Santee,40,67.5,Masters 40-44,40-44,M,200,215,225,225,140,150,157.5,157.5,220,240,-250,240,622.5,SBD,Single-ply,1
Larry Eggleston,40,67.5,Masters 40-44,40-44,M,180,187.5,192.5,192.5,97.5,105,107.5,107.5,185,200,210,210,510,SBD,Single-ply,2
M. Allain,,67.5,Masters 40-44,40-44,M,165,-177.5,-177.5,165,112.5,117.5,122.5,122.5,182.5,190,195,195,482.5,SBD,Single-ply,3
James Capehart,,67.5,Masters 40-44,40-44,M,167.5,-177.5,177.5,177.5,107.5,112.5,117.5,117.5,167.5,177.5,182.5,182.5,477.5,SBD,Single-ply,4
Dean Whitney,,67.5,Masters 40-44,40-44,M,-172.5,-182.5,-187.5,,,,,,,,,,,SBD,Single-ply,DQ
Fabian Wambsgans,40,75,Masters 40-44,40-44,M,240,-255,-255,240,155,-160,162.5,162.5,260,-275,-275,260,662.5,SBD,Single-ply,1
D. Smith,,75,Masters 40-44,40-44,M,-227.5,-227.5,227.5,227.5,120,-130,130,130,237.5,250,-257.5,250,607.5,SBD,Single-ply,2
R. Grimaldo,,75,Masters 40-44,40-44,M,67.5,87.5,105,105,140,150,,150,137.5,152.5,170,170,425,SBD,Single-ply,3
Troy Hicks,,82.5,Masters 40-44,40-44,M,255,-267.5,272.5,272.5,150,155,160,160,280,287.5,295,295,727.5,SBD,Single-ply,1
Bob McKee,,82.5,Masters 40-44,40-44,M,222.5,240,-250,240,162.5,167.5,-170,167.5,280,297.5,-320,297.5,705,SBD,Single-ply,2
Bob Johnson,40,82.5,Masters 40-44,40-44,M,245,262.5,-272.5,262.5,147.5,152.5,157.5,157.5,260,270,-275,270,690,SBD,Single-ply,3
Don Jones #4,40,82.5,Masters 40-44,40-44,M,275,292.5,,292.5,125,-132.5,-132.5,125,250,-275,-275,250,667.5,SBD,Single-ply,4
Mike VanCleave,,82.5,Masters 40-44,40-44,M,-227.5,237.5,250,250,135,-142.5,142.5,142.5,230,250,-260,250,642.5,SBD,Single-ply,5
Keith Hartman,,82.5,Masters 40-44,40-44,M,252.5,-267.5,,252.5,137.5,-145,,137.5,230,252.5,-272.5,252.5,642.5,SBD,Single-ply,6
Dave Dryden,,82.5,Masters 40-44,40-44,M,-207.5,-220,227.5,227.5,112.5,120,127.5,127.5,217.5,235,-250,235,590,SBD,Single-ply,7
James Christin,,82.5,Masters 40-44,40-44,M,155,-175,175,175,120,127.5,132.5,132.5,210,220,227.5,227.5,535,SBD,Single-ply,8
Tony Johnson,,90,Masters 40-44,40-44,M,-310,310,-347.5,310,180,195,200,200,282.5,-310,,282.5,792.5,SBD,Single-ply,1
Dave Spadafora,40,90,Masters 40-44,40-44,M,275,292.5,-305,292.5,137.5,142.5,145,145,255,265,-272.5,265,702.5,SBD,Single-ply,2
Richard Herrick,,90,Masters 40-44,40-44,M,185,192.5,-197.5,192.5,112.5,117.5,-120,117.5,205,215,220,220,530,SBD,Single-ply,3
M. Weddell,,90,Masters 40-44,40-44,M,170,-182.5,182.5,182.5,115,117.5,-120,117.5,192.5,202.5,210,210,510,SBD,Single-ply,4
J. Griffith,,90,Masters 40-44,40-44,M,,,,,,,,,,,,,,SBD,Single-ply,DQ
Dan Hamblet,,100,Masters 40-44,40-44,M,272.5,285,-295,285,175,187.5,197.5,197.5,307.5,320,-322.5,320,802.5,SBD,Single-ply,1
William Link,,100,Masters 40-44,40-44,M,295,325,-340,325,155,165,-172.5,165,275,295,-307.5,295,785,SBD,Single-ply,2
Larry Flynn,,100,Masters 40-44,40-44,M,287.5,-297.5,297.5,297.5,160,-170,170,170,265,-280,,265,732.5,SBD,Single-ply,3
D. Ferguson,,100,Masters 40-44,40-44,M,227.5,-245,-245,227.5,192.5,-202.5,-202.5,192.5,250,,,250,670,SBD,Single-ply,4
F. Stephens,,100,Masters 40-44,40-44,M,-197.5,-205,205,205,122.5,132.5,137.5,137.5,205,217.5,-222.5,217.5,560,SBD,Single-ply,5
Glen Stevans,40,110,Masters 40-44,40-44,M,307.5,-340,-340,307.5,182.5,,,182.5,295,320,-337.5,320,810,SBD,Single-ply,1
Ernie Gilbert,40,110,Masters 40-44,40-44,M,262.5,282.5,-292.5,282.5,145,150,155,155,262.5,287.5,-300,287.5,725,SBD,Single-ply,2
James Hodges,,110,Masters 40-44,40-44,M,255,-267.5,-267.5,255,145,152.5,-155,152.5,255,312.5,-317.5,312.5,720,SBD,Single-ply,3
G. Vanorum,,110,Masters 40-44,40-44,M,167.5,177.5,187.5,187.5,117.5,125,,125,187.5,195,205,205,517.5,SBD,Single-ply,4
Brian Meek,,125,Masters 40-44,40-44,M,310,332.5,,332.5,202.5,212.5,217.5,217.5,300,315,322.5,322.5,872.5,SBD,Single-ply,1
Ed Rech,,125,Masters 40-44,40-44,M,317.5,335,,335,175,182.5,190,190,287.5,302.5,307.5,307.5,832.5,SBD,Single-ply,2
L. Shows,,125,Masters 40-44,40-44,M,282.5,-305,-305,282.5,200,212.5,217.5,217.5,295,320,-327.5,320,820,SBD,Single-ply,3
Richard Vaillancourt,40,125,Masters 40-44,40-44,M,327.5,-352.5,-357.5,327.5,185,195,-202.5,195,272.5,-302.5,-302.5,272.5,795,SBD,Single-ply,4
Les Cheney,,125,Masters 40-44,40-44,M,260,-277.5,277.5,277.5,182.5,190,-195,190,240,250,-260,250,717.5,SBD,Single-ply,5
D. Veitch,,125,Masters 40-44,40-44,M,220,-237.5,-245,220,125,135,140,140,230,240,245,245,605,SBD,Single-ply,6
Greg Garrett,40,125+,Masters 40-44,40-44,M,300,320,340,340,230,-240,240,240,280,-317.5,,280,860,SBD,Single-ply,1
E. Lane,,125+,Masters 40-44,40-44,M,272.5,-300,,272.5,165,185,192.5,192.5,245,267.5,280,280,745,SBD,Single-ply,2
B. Taylor,,125+,Masters 40-44,40-44,M,227.5,245,262.5,262.5,147.5,157.5,162.5,162.5,227.5,255,,255,680,SBD,Single-ply,3
J. Lyons,,125+,Masters 40-44,40-44,M,197.5,-210,215,215,132.5,140,142.5,142.5,242.5,252.5,260,260,617.5,SBD,Single-ply,4
Mike Lawson,,67.5,Masters 45-49,45-49,M,200,215,227.5,227.5,100,107.5,110,110,202.5,212.5,217.5,217.5,555,SBD,Single-ply,1
Norm MacKay,,75,Masters 45-49,45-49,M,190,205,-215,205,142.5,150,-155,150,197.5,210,-212.5,210,565,SBD,Single-ply,1
Robert Greenwald,,75,Masters 45-49,45-49,M,200,215,-225,215,110,-120,-120,110,192.5,,,192.5,517.5,SBD,Single-ply,2
E. Godfrey #1,,90,Masters 45-49,45-49,M,237.5,250,265,265,145,150,160,160,230,242.5,250,250,675,SBD,Single-ply,1
H. Morgan,,90,Masters 45-49,45-49,M,215,227.5,-247.5,227.5,127.5,137.5,145,145,245,262.5,-272.5,262.5,635,SBD,Single-ply,2
Charles Wuest,,90,Masters 45-49,45-49,M,-175,-175,175,175,127.5,132.5,-135,132.5,192.5,200,-202.5,200,507.5,SBD,Single-ply,3
John Herbein,,90,Masters 45-49,45-49,M,-170,170,-175,170,115,120,-125,120,200,-212.5,217.5,217.5,507.5,SBD,Single-ply,4
B. Diciccio,,90,Masters 45-49,45-49,M,-165,-165,165,165,112.5,-120,120,120,195,210,-227.5,210,495,SBD,Single-ply,5
Omar Lomba,,100,Masters 45-49,45-49,M,290,-310,-317.5,290,200,210,215,215,285,295,-300,295,800,SBD,Single-ply,1
D. Taylor #4,,100,Masters 45-49,45-49,M,-285,285,295,295,182.5,190,-195,190,260,-272.5,-272.5,260,745,SBD,Single-ply,2
Paul Fleming #1,,100,Masters 45-49,45-49,M,227.5,240,-250,240,185,195,-205,195,265,275,-280,275,710,SBD,Single-ply,3
Tom Bauers,,100,Masters 45-49,45-49,M,252.5,-267.5,-272.5,252.5,155,-160,-160,155,277.5,-287.5,,277.5,685,SBD,Single-ply,4
Leon Stinson,,100,Masters 45-49,45-49,M,-282.5,-292.5,-292.5,,,,,,,,,,,SBD,Single-ply,DQ
Cliff Nestleroad,,110,Masters 45-49,45-49,M,272.5,295,305,305,160,172.5,182.5,182.5,262.5,280,285,285,772.5,SBD,Single-ply,1
Ronnie Ray Sr,,110,Masters 45-49,45-49,M,222.5,240,250,250,182.5,195,200,200,245,265,275,275,725,SBD,Single-ply,2
Bill Jackson,,110,Masters 45-49,45-49,M,250,270,-280,270,187.5,192.5,-197.5,192.5,250,-272.5,,250,712.5,SBD,Single-ply,3
Jim Duree,,110,Masters 45-49,45-49,M,-255,-255,255,255,-127.5,127.5,-137.5,127.5,245,-267.5,-267.5,245,627.5,SBD,Single-ply,4
Tony Teets,,125,Masters 45-49,45-49,M,240,250,260,260,190,200,-210,200,250,260,267.5,267.5,727.5,SBD,Single-ply,1
G. Bruton,,125,Masters 45-49,45-49,M,195,-210,217.5,217.5,137.5,147.5,157.5,157.5,212.5,232.5,245,245,620,SBD,Single-ply,2
Robert Rood,,125,Masters 45-49,45-49,M,215,-227.5,227.5,227.5,132.5,137.5,-140,137.5,227.5,235,-257.5,235,600,SBD,Single-ply,3
Larry Kidney,47,125+,Masters 45-49,45-49,M,370,,,370,220,-227.5,-227.5,220,332.5,-365,,332.5,922.5,SBD,Single-ply,1
Don Martin,,125+,Masters 45-49,45-49,M,-300,-327.5,327.5,327.5,152.5,167.5,180,180,320,-355,-355,320,827.5,SBD,Single-ply,2
Sal Leonardi,,125+,Masters 45-49,45-49,M,-185,185,-227.5,185,235,255,-272.5,255,250,275,,275,715,SBD,Single-ply,3
Paul Trujillo,,60,Masters 50-54,50-54,M,147.5,157.5,162.5,162.5,100,107.5,112.5,112.5,175,190,195,195,470,SBD,Single-ply,1
Max Peek #1,,67.5,Masters 50-54,50-54,M,180,-182.5,182.5,182.5,100,105,-107.5,105,185,197.5,202.5,202.5,490,SBD,Single-ply,1
Harry Rome,,67.5,Masters 50-54,50-54,M,-155,155,-170,155,97.5,102.5,-107.5,102.5,165,185,-197.5,185,442.5,SBD,Single-ply,2
Glen Gill,,75,Masters 50-54,50-54,M,195,217.5,227.5,227.5,175,185,192.5,192.5,205,227.5,,227.5,647.5,SBD,Single-ply,1
ED Hill,,75,Masters 50-54,50-54,M,185,-195,-195,185,100,-105,,100,190,-200,,190,475,SBD,Single-ply,2
LB Baker,,82.5,Masters 50-54,50-54,M,240,255,260,260,160,167.5,172.5,172.5,240,-245,,240,672.5,SBD,Single-ply,1
JB Adams,,82.5,Masters 50-54,50-54,M,-250,250,-272.5,250,142.5,152.5,-160,152.5,237.5,,,237.5,640,SBD,Single-ply,2
Chet Thomas,,82.5,Masters 50-54,50-54,M,227.5,-240,240,240,137.5,150,-155,150,227.5,240,-247.5,240,630,SBD,Single-ply,3
Bob Strange,,82.5,Masters 50-54,50-54,M,165,180,-190,180,-120,120,-135,120,-220,225,235,235,535,SBD,Single-ply,4
S. Zlochen,,82.5,Masters 50-54,50-54,M,-102.5,107.5,-115,107.5,102.5,107.5,110,110,125,142.5,155,155,372.5,SBD,Single-ply,5
Tom Eldridge,,90,Masters 50-54,50-54,M,255,270,275,275,150,160,-162.5,160,240,-255,255,255,690,SBD,Single-ply,1
Jerry Engelbert,,100,Masters 50-54,50-54,M,272.5,-292.5,-292.5,272.5,140,147.5,155,155,272.5,295,,295,722.5,SBD,Single-ply,1
Brian Mooney,,100,Masters 50-54,50-54,M,227.5,250,-275,250,150,165,-175,165,237.5,260,-272.5,260,675,SBD,Single-ply,2
Jesse Salinas #1,,100,Masters 50-54,50-54,M,272.5,-292.5,-297.5,272.5,137.5,145,150,150,232.5,250,-265,250,672.5,SBD,Single-ply,3
Carl Nicol,,110,Masters 50-54,50-54,M,-260,260,272.5,272.5,165,172.5,182.5,182.5,260,270,275,275,730,SBD,Single-ply,1
Curtis Walker,,110,Masters 50-54,50-54,M,237.5,255,262.5,262.5,182.5,190,-195,190,250,265,-275,265,717.5,SBD,Single-ply,2
Ernest Schmuck,,110,Masters 50-54,50-54,M,250,-262.5,262.5,262.5,147.5,155,157.5,157.5,240,250,-260,250,670,SBD,Single-ply,3
Don Starr,,110,Masters 50-54,50-54,M,220,-235,-235,220,142.5,147.5,152.5,152.5,230,-245,-245,230,602.5,SBD,Single-ply,4
John Vernacchio Sr,,110,Masters 50-54,50-54,M,232.5,-242.5,-242.5,232.5,127.5,132.5,137.5,137.5,220,227.5,-237.5,227.5,597.5,SBD,Single-ply,5
A. Wycoff,,110,Masters 50-54,50-54,M,187.5,-192.5,197.5,197.5,145,150,-155,150,192.5,200,205,205,552.5,SBD,Single-ply,6
D. Schaan,,110,Masters 50-54,50-54,M,-115,-115,115,115,90,95,-97.5,95,137.5,-150,150,150,360,SBD,Single-ply,7
Ed Riley #1,,125,Masters 50-54,50-54,M,245,262.5,272.5,272.5,182.5,192.5,-197.5,192.5,227.5,262.5,297.5,297.5,762.5,SBD,Single-ply,1
Hal Hudson,,125,Masters 50-54,50-54,M,-240,240,-272.5,240,155,170,-182.5,170,245,272.5,-297.5,272.5,682.5,SBD,Single-ply,2
H. Williams,,125,Masters 50-54,50-54,M,205,-240,240,240,85,102.5,-112.5,102.5,205,240,247.5,247.5,590,SBD,Single-ply,3
C. Webber,,125+,Masters 50-54,50-54,M,170,187.5,-195,187.5,102.5,112.5,-115,112.5,200,-207.5,-207.5,200,500,SBD,Single-ply,1
Phil Neyer,,67.5,Masters 55-59,55-59,M,-182.5,182.5,187.5,187.5,92.5,97.5,-100,97.5,220,-232.5,-232.5,220,505,SBD,Single-ply,1
Dick Giller,,75,Masters 55-59,55-59,M,150,-160,-160,150,125,130,137.5,137.5,215,222.5,227.5,227.5,515,SBD,Single-ply,1
Art Montini,,75,Masters 55-59,55-59,M,-160,160,-172.5,160,95,100,-102.5,100,210,227.5,232.5,232.5,492.5,SBD,Single-ply,2
D. Boyer,,75,Masters 55-59,55-59,M,-127.5,127.5,140,140,90,95,102.5,102.5,165,175,-182.5,175,417.5,SBD,Single-ply,3
Jim Lem,,82.5,Masters 55-59,55-59,M,255,272.5,280,280,140,147.5,-150,147.5,250,272.5,-280,272.5,700,SBD,Single-ply,1
Fred Mullin,,82.5,Masters 55-59,55-59,M,205,-217.5,222.5,222.5,120,127.5,-132.5,127.5,220,-230,-235,220,570,SBD,Single-ply,2
Burt Rosenfield,,82.5,Masters 55-59,55-59,M,137.5,145,150,150,120,127.5,135,135,170,182.5,185,185,470,SBD,Single-ply,3
E. McClough,,82.5,Masters 55-59,55-59,M,125,152.5,-160,152.5,105,-110,110,110,170,182.5,-187.5,182.5,445,SBD,Single-ply,4
George Manly,,90,Masters 55-59,55-59,M,185,195,205,205,107.5,112.5,-117.5,112.5,195,205,215,215,532.5,SBD,Single-ply,1
H. Carter,,90,Masters 55-59,55-59,M,112.5,125,147.5,147.5,110,122.5,127.5,127.5,135,180,190,190,465,SBD,Single-ply,2
D. Johnson,,100,Masters 55-59,55-59,M,245,265,-272.5,265,147.5,155,-160,155,250,-272.5,-272.5,250,670,SBD,Single-ply,1
Jack Kress,,100,Masters 55-59,55-59,M,200,212.5,217.5,217.5,145,152.5,160,160,212.5,222.5,230,230,607.5,SBD,Single-ply,2
Paul Haberman,,100,Masters 55-59,55-59,M,205,217.5,227.5,227.5,125,137.5,145,145,205,222.5,-240,222.5,595,SBD,Single-ply,3
Gordon Tornberg,,100,Masters 55-59,55-59,M,-182.5,-195,200,200,122.5,137.5,-145,137.5,195,215,-227.5,215,552.5,SBD,Single-ply,4
Russ Murphy,56,110,Masters 55-59,55-59,M,230,245,-255,245,142.5,152.5,-160,152.5,230,240,250,250,647.5,SBD,Single-ply,1
Larry McCauley,60,90,Masters 60-64,60-64,M,205,-227.5,-237.5,205,160,170,-175,170,250,272.5,-290,272.5,647.5,SBD,Single-ply,1
Rex Monahan,62,90,Masters 60-64,60-64,M,82.5,102.5,-107.5,102.5,80,90,-92.5,90,120,137.5,142.5,142.5,335,SBD,Single-ply,2
Ernie Nagy,,100,Masters 60-64,60-64,M,100,,,100,100,,,100,100,,,100,300,SBD,Single-ply,1
H. Fox,,125,Masters 60-64,60-64,M,-205,-250,-250,,,,,,,,,,,SBD,Single-ply,DQ
Joe Hubbard,,60,Masters 65-69,65-69,M,102.5,112.5,-117.5,112.5,62.5,67.5,70,70,137.5,145,150,150,332.5,SBD,Single-ply,1
Harrison Benner,,75,Masters 65-69,65-69,M,115,-127.5,127.5,127.5,100,107.5,110,110,117.5,-172.5,172.5,172.5,410,SBD,Single-ply,1
Roy Mason,,75,Masters 65-69,65-69,M,112.5,-120,125,125,37.5,40,47.5,47.5,160,217.5,-242.5,217.5,390,SBD,Single-ply,2
J. Bandera,,82.5,Masters 65-69,65-69,M,90,105,-112.5,105,82.5,92.5,97.5,97.5,137.5,147.5,157.5,157.5,360,SBD,Single-ply,1
Charles Lee,66,90,Masters 65-69,65-69,M,-137.5,142.5,-157.5,142.5,125,130,-132.5,130,182.5,205,-207.5,205,477.5,SBD,Single-ply,1
Francis Barrett #1,,90,Masters 65-69,65-69,M,-150,150,-177.5,150,105,115,-122.5,115,177.5,192.5,-200,192.5,457.5,SBD,Single-ply,2
S. Robak,,100,Masters 65-69,65-69,M,-122.5,122.5,140,140,107.5,115,-120,115,160,185,,185,440,SBD,Single-ply,1
Jack van Sise,,67.5,Masters 70-74,70-74,M,75,85,-95,85,50,55,60,60,112.5,127.5,137.5,137.5,282.5,SBD,Single-ply,1
Bernard Brand,,75,Masters 70-74,70-74,M,-130,130,140,140,70,77.5,82.5,82.5,167.5,-177.5,-177.5,167.5,390,SBD,Single-ply,1
Joe Kurpiel,,90,Masters 70-74,70-74,M,130,147.5,155,155,87.5,95,102.5,102.5,177.5,197.5,-205,197.5,455,SBD,Single-ply,1
George Stevens,,90,Masters 70-74,70-74,M,82.5,97.5,102.5,102.5,50,57.5,62.5,62.5,120,130,-135,130,295,SBD,Single-ply,2
Sage Pendley,70,100,Masters 70-74,70-74,M,-65,65,77.5,77.5,77.5,85,92.5,92.5,112.5,122.5,132.5,132.5,302.5,SBD,Single-ply,1
Jim Messer,81,75,Masters 80+,80-999,M,-60,60,70,70,25,30,-35,30,100,110,-120,110,210,SBD,Single-ply,1
J. Farabee,,52,Masters 40+,40-999,F,107.5,115,-122.5,115,47.5,52.5,-57.5,52.5,112.5,120,127.5,127.5,295,SBD,Single-ply,1
J. Redmond,,52,Masters 40+,40-999,F,92.5,-100,100,100,57.5,60,-62.5,60,115,125,130,130,290,SBD,Single-ply,2
Ann Boyer,,52,Masters 40+,40-999,F,67.5,72.5,-77.5,72.5,50,55,57.5,57.5,100,-107.5,-107.5,100,230,SBD,Single-ply,3
Karin Reagan,46,56,Masters 40+,40-999,F,110,125,132.5,132.5,65,75,-85,75,140,150,160,160,367.5,SBD,Single-ply,1
Jackie Shelnutt,,56,Masters 40+,40-999,F,112.5,117.5,-122.5,117.5,57.5,60,62.5,62.5,125,132.5,137.5,137.5,317.5,SBD,Single-ply,2
Danette Hartmann,45,67.5,Masters 40+,40-999,F,155,170,182.5,182.5,107.5,115,-117.5,115,185,202.5,,202.5,500,SBD,Single-ply,1
E. Bream,,67.5,Masters 40+,40-999,F,142.5,155,160,160,85,92.5,-97.5,92.5,150,170,-182.5,170,422.5,SBD,Single-ply,2
S. Cox,,67.5,Masters 40+,40-999,F,52.5,-67.5,67.5,67.5,35,42.5,45,45,82.5,95,-105,95,207.5,SBD,Single-ply,3
L. Devaney,,75,Masters 40+,40-999,F,137.5,147.5,152.5,152.5,70,77.5,82.5,82.5,150,170,-182.5,170,405,SBD,Single-ply,1
Gwen Patillo,,82.5,Masters 40+,40-999,F,60,,,60,50,55,60,60,115,137.5,,137.5,257.5,SBD,Single-ply,1
