Place,Name,Sex,BirthYear,WeightClassKg,Division,BodyweightKg,Squat1Kg,Squat2Kg,Squat3Kg,Best3SquatKg,Bench1Kg,Bench2Kg,Bench3Kg,Best3BenchKg,Deadlift1Kg,Deadlift2Kg,Deadlift3Kg,Best3DeadliftKg,TotalKg,Event,Equipment
1,Ewa Mioduszewska,F,1989,47,Open,46.8,95,102.5,-110,102.5,42.5,47.5,50,50,122.5,130,138,138,290.5,SBD,Raw
2,Paulina Grzybek,F,1994,47,Open,47,95,102.5,-107.5,102.5,47.5,53.5,55.5,55.5,115,122.5,-130,122.5,280.5,SBD,Raw
3,Alicja Mułyk,F,1994,47,Open,46.7,92.5,97.5,-100,97.5,42.5,47.5,-52.5,47.5,-100,100,117.5,117.5,262.5,SBD,Raw
4,Nina Skalska,F,1989,47,Open,44.5,85,90,-95,90,-52.5,52.5,55,55,100,105,107.5,107.5,252.5,SBD,Raw
5,Sylwia Franke,F,1986,47,Open,47,80,85,90,90,40,42.5,-45,42.5,105,110,-115,110,242.5,SBD,Raw
DQ,Dobrosława Lewicka,F,1989,47,Open,46.6,-75,-80,-80,,50,52.5,55,55,85,90,100,100,,SBD,Raw
1,Anna Mikołajczyk,F,1990,52,Open,51.4,90,95,100,100,55,60,-62.5,60,115,122.5,130,130,290,SBD,Raw
2,Klaudia Poszwa,F,2000,52,Open,47.6,90,100,102.5,102.5,37.5,40,42.5,42.5,110,120,125.5,125.5,270.5,SBD,Raw
3,Helena Morawska,F,1972,52,Open,51.7,-80,80,90,90,45,52.5,-57.5,52.5,90,102.5,110,110,252.5,SBD,Raw
4,Anna Tarnowska,F,1978,52,Open,51.7,85,90,-95,90,-40,40,-42.5,40,100,110,-122.5,110,240,SBD,Raw
DQ,Paulina Szymanel,F,1995,52,Open,48.1,-85,-85,-85,,45,47.5,52.5,52.5,95,100,105,105,,SBD,Raw
1,Sylwia Martyniuk,F,1980,57,Open,56.61,125,130,135,135,72.5,75,77.5,77.5,140,147.5,153,153,365.5,SBD,Raw
2,Katarzyna Imiołek,F,1990,57,Open,56.39,95,102.5,110,110,60,-62.5,-62.5,60,130,140,150,150,320,SBD,Raw
3,Kornelia Kulczycka,F,1985,57,Open,54.69,95,102.5,107.5,107.5,62.5,67.5,-70,67.5,117.5,125,130,130,305,SBD,Raw
1,Karolina Radgowska,F,1992,63,Open,62.6,125,132.5,137.5,137.5,60,62.5,65,65,155,165.5,177.5,177.5,380,SBD,Raw
2,Emilia Sobiech-Konopa,F,1988,63,Open,62.1,130,137.5,-140,137.5,67.5,72.5,-75,72.5,145,152.5,157.5,157.5,367.5,SBD,Raw
3,Aleksandra Gudecka,F,1984,63,Open,62.3,95,102.5,-107.5,102.5,62.5,67.5,-70,67.5,115,120,125,125,295,SBD,Raw
4,Marta Leśniewska,F,1996,63,Open,60.7,95,100,-105,100,55,60,-62.5,60,110,122.5,-130,122.5,282.5,SBD,Raw
5,Patrycja Gibek,F,1989,63,Open,62.5,95,102.5,-107.5,102.5,60,62.5,65,65,100,107.5,115,115,282.5,SBD,Raw
6,Kamila Kluczniok,F,1990,63,Open,58.3,80,85,90,90,40,-45,-45,40,97.5,102.5,110,110,240,SBD,Raw
1,Marzena Wierzbicka,F,1989,72,Open,71.68,150,160,165,165,90,95,-97.5,95,175,185,190.5,190.5,450.5,SBD,Raw
2,Justyna Liszyk-Świder,F,1988,72,Open,69.66,145,155.5,-160.5,155.5,65,72.5,-75,72.5,165,175,180,180,408,SBD,Raw
3,Dominika Łakomik,F,1999,72,Open,69.2,115,127.5,132.5,132.5,55,-60,-60,55,125,132.5,-140,132.5,320,SBD,Raw
1,Aneta Szot,F,1984,84,Open,72.1,110,120,-125,120,100,103.5,105,105,150,160,170,170,395,SBD,Raw
2,Karolina Gaczyńska,F,1992,84,Open,76.26,120,-125,130,130,70,75,77.5,77.5,125,135,140,140,347.5,SBD,Raw
3,Aleksandra Stolarzewicz,F,1998,84,Open,81.98,90,105,122.5,122.5,57.5,62.5,65,65,100,115,127.5,127.5,315,SBD,Raw
4,Daria Ławniczak,F,1995,84,Open,75.32,85,95,100,100,82.5,87.5,90,90,110,120,-130,120,310,SBD,Raw
5,Adriana Kozłowska,F,1990,84,Open,73.91,60,65,-75,65,55,57.5,60,60,95,105,107.5,107.5,232.5,SBD,Raw
6,Katarzyna Stachyra,F,1978,84,Open,72.2,55,65,70,70,42.5,47.5,-52.5,47.5,80,90,102.5,102.5,220,SBD,Raw
DQ,Katarzyna Dzieżok,F,1985,84,Open,72.16,77.5,82.5,85,85,57.5,-62.5,62.5,62.5,-120,-120,-120,,,SBD,Raw
1,Alicja Ilczuk,F,1993,84+,Open,91.2,115,125,132.5,132.5,57.5,62.5,-67.5,62.5,120,135,142.5,142.5,337.5,SBD,Raw
2,Katarzyna Obiała,F,1983,84+,Open,102.98,80,82.5,-85,82.5,35,40,42.5,42.5,75,82.5,90,90,215,SBD,Raw
1,Jakub Lenart,M,,83,Juniors Under 16,76.2,190.5,200,210,210,130,-137.5,-140,130,-190,190,210,210,550,SBD,Raw
2,Wojciech Magiera,M,,66,Juniors Under 16,62.9,-125,125,135,135,100,105,-110.5,105,140,152.5,160,160,400,SBD,Raw
3,Michał Kowalczyk,M,,83,Juniors Under 16,79.2,155,165,175,175,107.5,-115,-115,107.5,150,-165,165,165,447.5,SBD,Raw
4,Jakub Stachurski,M,,66,Juniors Under 16,64.2,100,110,-120,110,65,75,80,80,110,130,150,150,340,SBD,Raw
5,Norbert Kaczor,M,,93,Juniors Under 16,84.4,130,-135,137.5,137.5,100,105,110,110,140,-150,150,150,397.5,SBD,Raw
6,Daniel Machulik,M,,93,Juniors Under 16,83.3,100,107.5,115,115,107.5,112.5,115,115,120,130,140,140,370,SBD,Raw
7,Jakub Ostrowski,M,,74,Juniors Under 16,73,100,105,110,110,82.5,87.5,-90,87.5,120,132.5,137.5,137.5,335,SBD,Raw
8,Michał Oświęcimski,M,,83,Juniors Under 16,83,70,-80,85,85,42.5,47.5,-50,47.5,-115,115,127.5,127.5,260,SBD,Raw
1,Dawid Król,M,2000,83,Juniors Under 18,75.5,180,190,-195,190,125,132.5,137.5,137.5,-210,220,225,225,552.5,SBD,Raw
2,Bartosz Tokarski,M,2000,93,Juniors Under 18,91.1,215,230,240.5,240.5,115,127.5,-135,127.5,210,222.5,232.5,232.5,600.5,SBD,Raw
3,Wojciech Grupiński,M,1999,105,Juniors Under 18,102.6,220,230,242.5,242.5,130,135,-140,135,-225,225,-276,225,602.5,SBD,Raw
4,Marcin Lenartowicz,M,2000,105,Juniors Under 18,94.4,-185,185,205,205,115,125,132.5,132.5,220,230,240,240,577.5,SBD,Raw
5,Kacper Suchecki,M,2000,66,Juniors Under 18,64.6,140,150,155,155,75,80,85,85,175,182.5,187.5,187.5,427.5,SBD,Raw
6,Michał Podstawski,M,1999,74,Juniors Under 18,73.5,150,160,170,170,90,95,102.5,102.5,175,185,197.5,197.5,470,SBD,Raw
7,Przemysław Bielarczyk,M,1999,74,Juniors Under 18,70,130,-140,145,145,85,95,-100,95,190,200,205,205,445,SBD,Raw
8,Dawid Stachurski,M,2000,66,Juniors Under 18,65.5,130,140,150,150,80,87.5,-90,87.5,150,170,180,180,417.5,SBD,Raw
9,Bartosz Roszer,M,1999,83,Juniors Under 18,82.1,175,-185,-185,175,-132.5,132.5,-137.5,132.5,175,182.5,-187.5,182.5,490,SBD,Raw
10,Dawid Ożga,M,1999,74,Juniors Under 18,70.8,145,-150,-150,145,100,105,-110,105,160,170,175,175,425,SBD,Raw
11,Kacper Węgrzyn,M,1999,93,Juniors Under 18,90.9,170,-180,180,180,112.5,120,-125,120,175,185,195,195,495,SBD,Raw
12,Grzegorz Gwiazdoń,M,2000,66,Juniors Under 18,66,130,-140,-140,130,75,-82.5,82.5,82.5,-175,180,185,185,397.5,SBD,Raw
13,Grzegorz Cieślak,M,1999,66,Juniors Under 18,66,135,140,142.5,142.5,80,85,-87.5,85,135,140,142.5,142.5,370,SBD,Raw
14,Tomasz Janas,M,2000,66,Juniors Under 18,65.6,115,125,-130,125,70,75,-77.5,75,140,-150,150,150,350,SBD,Raw
15,Sebastian Jonda,M,1999,66,Juniors Under 18,63.4,105,110,-117.5,110,72.5,77.5,82.5,82.5,120,127.5,135,135,327.5,SBD,Raw
16,Maciej Szymczyk,M,2000,59,Juniors Under 18,58.6,70,80,90,90,55,65,-70,65,115,125,-135,125,280,SBD,Raw
1,Seweryn Rzepecki,M,1997,105,Juniors Under 20,99.5,210,-225,225,225,140,147.5,150,150,270,280,-285,280,655,SBD,Raw
2,Patryk Romanowicz,M,1998,83,Juniors Under 21,81.45,205,215,-220,215,110,120,-125,120,235,253,-270.5,253,588,SBD,Raw
3,Piotr Konkol,M,1997,120,Juniors Under 22,110.8,215,225,,225,-145,155,160,160,245,,,245,630,SBD,Raw
4,Piotr Kowalczyk,M,1997,74,Juniors Under 23,73.1,160,175,-185,175,120,-130,130,130,175,185,-192.5,185,490,SBD,Raw
5,Bartłomiej Kowalczyk,M,1998,93,Juniors Under 24,91.2,175,185,195,195,120,127.5,130,130,185,200,215,215,540,SBD,Raw
6,Krystian Gmórski,M,1998,83,Juniors Under 25,81.25,-150,-150,150,150,120,125,-130,125,190,200,205,205,480,SBD,Raw
7,Tomasz Kolbusz,M,1998,105,Juniors Under 26,97.9,160,170,180,180,112.5,117.5,122.5,122.5,210,222.5,-230,222.5,525,SBD,Raw
8,Damian Helm,M,1997,93,Juniors Under 27,89.1,160,-170,-175,160,127.5,132.5,135,135,180,195,205,205,500,SBD,Raw
9,Piotr Zawisza,M,1997,83,Juniors Under 28,81.7,170,-180,-180,170,100,-110,-110,100,180,200,-212.5,200,470,SBD,Raw
1,Paweł Mazij,M,1994,74,Juniors Under 23,70.2,180,190,195,195,140,145,-147.5,145,220,230,240,240,580,SBD,Raw
2,Sebastian Sądej,M,1996,83,Juniors Under 24,75.25,190,-200,200,200,125,132.5,-135,132.5,205,215,220,220,552.5,SBD,Raw
3,Patryk Jędral,M,1994,83,Juniors Under 25,81.25,180,-192.5,-192.5,180,130,137.5,145,145,230,237.5,252.5,252.5,577.5,SBD,Raw
4,Dawid Borkowski,M,1995,93,Juniors Under 26,91.7,180,190,200,200,147.5,152.5,160,160,215,230,245,245,605,SBD,Raw
5,Jacek Juszczyk,M,1994,105,Juniors Under 27,99.3,210,220,222.5,222.5,130,137.5,142.5,142.5,240,250,255,255,620,SBD,Raw
6,Roman Smorz,M,1994,120,Juniors Under 28,119.7,230,240,-250,240,-150,150,-155,150,250,-260,-260,250,640,SBD,Raw
7,Jakub Kuriata,M,1996,105,Juniors Under 29,99.3,195,-210,215,215,125,-132.5,135,135,215,-230,230,230,580,SBD,Raw
8,Hubert Kułaga,M,1996,93,Juniors Under 30,91.1,195,-205,205,205,115,-120,120,120,220,-240,-240,220,545,SBD,Raw
9,Przemysław Kawczyński,M,1994,83,Juniors Under 31,80.55,160,175,180,180,100,-107.5,-107.5,100,200,220,-225,220,500,SBD,Raw
10,Tomasz Łyko,M,1994,83,Juniors Under 32,74.7,150,-160,160,160,-90,100,-105,100,165,175,-180,175,435,SBD,Raw
11,Jakub Gumuliński,M,1994,83,Juniors Under 33,80.4,130,140,152.5,152.5,105,-110,-115,105,160,170,-185,170,427.5,SBD,Raw
12,Łukasz Kowalczyk,M,1995,83,Juniors Under 34,80.8,105,110,112.5,112.5,-100,100,105,105,150,-160,160,160,377.5,SBD,Raw
1,Sławomir Śledź,M,1976,59,Open,58.7,170,180,183,183,135,140,142.5,142.5,190,-200,-205.5,190,515.5,SBD,Raw
2,Dariusz Janik,M,1983,59,Open,58.2,130,135,140,140,90,95,102.5,102.5,155,165,170,170,412.5,SBD,Raw
1,Dawid Kluczyńśki,M,1990,66,Open,65.8,-157.5,157.5,165,165,115,120,-122.5,120,185,200,,200,485,SBD,Raw
2,Kacper Suchecki,M,2000,66,Open,64.6,140,150,155,155,75,80,85,85,175,182.5,187.5,187.5,427.5,SBD,Raw
3,Grzegorz Cieślak,M,1999,66,Open,66,135,140,142.5,142.5,80,85,-87.5,85,135,140,142.5,142.5,370,SBD,Raw
4,Sebastian Jonda,M,1999,66,Open,63.4,105,110,-117.5,110,72.5,77.5,82.5,82.5,120,127.5,135,135,327.5,SBD,Raw
DQ,Dominik Walaszek,M,1993,66,Open,65.5,,,,,,,,,,,,,,SBD,Raw
1,Paweł Mazij,M,1994,74,Open,70.2,180,190,195,195,140,145,-147.5,145,220,230,240,240,580,SBD,Raw
2,Krzysztof Faron,M,1988,74,Open,74,185,195,-202.5,195,137.5,-142.5,-142.5,137.5,230,240,-255,240,572.5,SBD,Raw
3,Tomasz Miloch,M,1983,74,Open,73.8,185,195,-200,195,125,132.5,135,135,220,240,-245,240,570,SBD,Raw
4,Rafał Paprocki,M,1974,74,Open,72.8,-170,170,-177.5,170,110,115,-120,115,230,240,250,250,535,SBD,Raw
5,Włodzimierz Żmijewski,M,1949,74,Open,72.7,185,195,200,200,65,70,,70,-235,235,-250.5,235,505,SBD,Raw
6,Mateusz Powała,M,1991,74,Open,71.3,170,180,-185,180,130,140,-145,140,175,180,-185,180,500,SBD,Raw
7,Michał Podstawski,M,1999,74,Open,73.5,150,160,170,170,90,95,102.5,102.5,175,185,197.5,197.5,470,SBD,Raw
8,Dawid Ożga,M,1999,74,Open,70.8,145,-150,-150,145,100,105,-110,105,160,170,175,175,425,SBD,Raw
1,Krzysztof Rumel,M,1983,83,Open,81.45,210,-220,220,220,140,-145,-145,140,250,255,260,260,620,SBD,Raw
2,Patryk Romanowicz,M,1998,83,Open,81.45,205,215,-220,215,110,120,-125,120,235,253,-270.5,253,588,SBD,Raw
3,Szymon Grzegoszczyk,M,1992,83,Open,80.55,185,200,-205,200,135,142.5,-147.5,142.5,200,215,-225,215,557.5,SBD,Raw
4,Dawid Król,M,2000,83,Open,75.5,180,190,-195,190,125,132.5,137.5,137.5,-210,220,225,225,552.5,SBD,Raw
5,Michał Rożnowski,M,1979,83,Open,82.1,170,180,185,185,110,120,122.5,122.5,190,215,,215,522.5,SBD,Raw
6,Przemysław Kawczyński,M,1994,83,Open,80.55,160,175,180,180,100,-107.5,-107.5,100,200,220,-225,220,500,SBD,Raw
7,Piotr Zawisza,M,1997,83,Open,81.7,170,-180,-180,170,100,-110,-110,100,180,200,-212.5,200,470,SBD,Raw
8,Jakub Gumuliński,M,1994,83,Open,80.4,130,140,152.5,152.5,105,-110,-115,105,160,170,-185,170,427.5,SBD,Raw
9,Łukasz Kowalczyk,M,1995,83,Open,80.8,105,110,112.5,112.5,-100,100,105,105,150,-160,160,160,377.5,SBD,Raw
DQ,Michał Lis,M,1988,83,Open,81.7,180,190,-200,190,-140,-140,-140,,200,220,-240,220,,SBD,Raw
1,Dawid Pelc,M,1989,93,Open,92.6,220,230,235,235,200,205,-210,205,260,-267.5,,260,700,SBD,Raw
2,Mateusz Boroń,M,1988,93,Open,92.6,240,-250,-250,240,110,120,125,125,305,-315,-315,305,670,SBD,Raw
3,Piotr Pokorski,M,1989,93,Open,92.8,210,225,232.5,232.5,145,150,155,155,240,255,265,265,652.5,SBD,Raw
4,Dariusz Konopelski,M,1992,93,Open,85.2,225,235,242.5,242.5,147.5,152.5,157.5,157.5,225,-240,240,240,640,SBD,Raw
5,Mateusz Gąsiorowski,M,1989,93,Open,90.3,180,190,200,200,130,145,-155,145,220,-230,235,235,580,SBD,Raw
6,Damian Pawelak,M,1993,93,Open,89.8,180,195,-200,195,135,-145,-145,135,210,230,240,240,570,SBD,Raw
7,Konrad Kosiński,M,1985,93,Open,86.7,180,190,-200,190,110,120,125,125,210,220,225,225,540,SBD,Raw
8,Marek Zierkiewicz,M,1992,93,Open,87.9,-130,130,145,145,92.5,97.5,102.5,102.5,160,175,-182.5,175,422.5,SBD,Raw
1,Krzysztof Wierzbicki,M,1990,105,Open,99.6,280,292.5,305.5,305.5,180,190,195,195,360,400,-408.5,400,900.5,SBD,Raw
2,Krzysztof Hoffmann,M,1991,105,Open,94.2,227.5,237.5,242.5,242.5,145,-150,150,150,280,-290,-290,280,672.5,SBD,Raw
3,Józef Gromek,M,1958,105,Open,93.1,210,230,240,240,145,150,155,155,250,270,,270,665,SBD,Raw
4,Krzysztof Kluczny,M,1992,105,Open,103.4,200,210,222.5,222.5,145,155,157.5,157.5,-240,250,260,260,640,SBD,Raw
5,Jakub Kuriata,M,1996,105,Open,99.3,195,-210,215,215,125,-132.5,135,135,215,-230,230,230,580,SBD,Raw
1,Łukasz Nizio,M,1992,120,Open,116.9,275,290,295,295,182.5,192.5,195,195,285,310,320,320,810,SBD,Raw
2,Roman Smorz,M,1994,120,Open,119.7,230,240,-250,240,-150,150,-155,150,250,-260,-260,250,640,SBD,Raw
3,Piotr Konkol,M,1997,120,Open,110.8,215,225,,225,-145,155,160,160,245,,,245,630,SBD,Raw
4,Paweł Konopa,M,1985,120,Open,112,225,230,235,235,135,142.5,,142.5,240,247.5,-255,247.5,625,SBD,Raw
5,Wojciech Dreiseitel,M,1990,120,Open,108.2,182.5,-192.5,200,200,122.5,127.5,132.5,132.5,195,205,210,210,542.5,SBD,Raw
1,Grzegorz Szklarz,M,1989,120+,Open,137.3,270,-285,-285,270,205,-210,-210,205,280,295,-305,295,770,SBD,Raw
2,Sebastian Sobiech,M,1980,120+,Open,120.1,260,275,282.5,282.5,180,187.5,-192.5,187.5,275,-285,285,285,755,SBD,Raw
3,Rafał Lipka,M,1975,120+,Open,122.6,250,260,-270,260,155,165,170,170,252.5,260,270,270,700,SBD,Raw
1,Sławomir Śledź,M,1976,59,Masters 1,58.7,170,180,183,183,135,140,142.5,142.5,190,-200,-205.5,190,515.5,SBD,Raw
2,Rafał Lipka,M,1975,120+,Masters 1,122.6,250,260,-270,260,155,165,170,170,252.5,260,270,270,700,SBD,Raw
3,Rafał Paprocki,M,1974,74,Masters 1,72.8,-170,170,-177.5,170,110,115,-120,115,230,240,250,250,535,SBD,Raw
4,Marcin Górka,M,1976,120,Masters 1,107.2,220,-232.5,-232.5,220,160,170,177.5,177.5,-250,250,-260,250,647.5,SBD,Raw
5,Sebastian Stępniak,M,1974,93,Masters 1,84.2,170,-180,180,180,110,117.5,-120,117.5,200,210,220,220,517.5,SBD,Raw
6,Łukasz Głowacz,M,1976,83,Masters 1,82.75,160,-170,170,170,130,-135,-135,130,200,-205,-205,200,500,SBD,Raw
1,Józef Gromek,M,1958,105,Masters 2,93.1,210,230,240,240,145,150,155,155,250,270,,270,665,SBD,Raw
2,Adam Jasiński,M,1951,83,Masters 2,78,195,202.5,215,215,110,-115,115,115,195,207.5,-212.5,207.5,537.5,SBD,Raw
3,Włodzimierz Żmijewski,M,1949,74,Masters 2,72.7,185,195,200,200,65,70,,70,-235,235,-250.5,235,505,SBD,Raw
4,Marian Cafalik,M,1956,74,Masters 2,73.5,160,170,175,175,80,85,87.5,87.5,180,190,-195,190,452.5,SBD,Raw
5,Marian Piwowarczyk,M,1961,66,Masters 2,63.5,90,100,110,110,90,95,-100,95,140,160,170,170,375,SBD,Raw
6,Andrzej Bryniarski,M,1954,105,Masters 2,94.4,140,150,160,160,100,-107.5,,100,160,170,180,180,440,SBD,Raw
DQ,Stanisław Goroczko,M,1953,83,Masters 2,80.8,-165,-165,-165,,,,,,,,,,,SBD,Raw
DQ,Jan Sowa,M,1946,83,Masters 2,82,-115,115,-120,115,85,90,,90,-135,-135,,,,SBD,Raw
